Project1_g7
…
# Example 1: Single Year Query

# a. Get data for region:3, year:2021, SCHL:24 including AGEP, GASP, SEX
data_2021 <- helper(
  year = 2021,
  numeric_vars = c("AGEP", "GASP"),
  categorical_vars = c("SEX"),
  geography = c("region"),
  geo_level = c("3"),
  arguments = list('SCHL' = "24")
)

print(data_2021)

# A tibble: 14,810 × 6
   PWGTP  AGEP  GASP SEX   SCHL  region
   <chr> <dbl> <dbl> <fct> <chr> <chr> 
 1 20       49     3 1     24    3     
 2 51       46     3 1     24    3     
 3 9        85     3 2     24    3     
 4 79       67     3 2     24    3     
 5 12       76     3 1     24    3     
 6 13       94     3 2     24    3     
 7 2        49     3 1     24    3     
 8 5        25     3 2     24    3     
 9 30       39     3 1     24    3     
10 6        70     3 1     24    3     
# ℹ 14,800 more rows

# b. Get data for state:6, year:2022, JWTRNS:10 including GRPIP, JWAP, JWDP, JWMNP, FER, HHL, HISPEED, SCH
data_2022 <- helper(
  year = 2022,
  numeric_vars = c("GRPIP", "JWAP", "JWDP", "JWMNP"),
  categorical_vars = c("FER", "HHL", "HISPEED", "SCH"),
  geography = c("state"),
  geo_level = c("6"),
  arguments = list('JWTRNS' = "10")
)

print(data_2022)

# A tibble: 4,927 × 11
   PWGTP GRPIP  JWAP  JWDP JWMNP FER   HHL   HISPEED SCH   JWTRNS state
   <chr> <dbl> <dbl> <dbl> <dbl> <fct> <fct> <fct>   <fct> <chr>  <chr>
 1 151       0   167   103     5 2     2     1       1     10     06   
 2 66        0    74    31    20 0     4     2       1     10     06   
 3 75        0    74    31    20 0     4     2       3     10     06   
 4 74       31   106    61    30 0     2     1       1     10     06   
 5 173      38    97    55    15 0     1     1       1     10     06   
 6 63        0    87    47     5 0     1     1       1     10     06   
 7 16        0   106    67     1 0     1     2       1     10     06   
 8 98        0    94    55     1 0     1     2       1     10     06   
 9 102       0    74    31    20 0     1     1       1     10     06   
10 48       30   125    82     5 2     4     1       1     10     06   
# ℹ 4,917 more rows
…
Fetching data for year: 2021

Fetching data for year: 2022

print(data_2021_2022)

# A tibble: 31,031 × 7
   PWGTP  AGEP  GASP SEX   SCHL  region  year
   <chr> <dbl> <dbl> <fct> <chr> <chr>  <dbl>
 1 20       49     3 1     24    3       2021
 2 51       46     3 1     24    3       2021
 3 9        85     3 2     24    3       2021
 4 79       67     3 2     24    3       2021
 5 12       76     3 1     24    3       2021
 6 13       94     3 2     24    3       2021
 7 2        49     3 1     24    3       2021
 8 5        25     3 2     24    3       2021
 9 30       39     3 1     24    3       2021
10 6        70     3 1     24    3       2021
# ℹ 31,021 more rows
…
Fetching data for year: 2019

Fetching data for year: 2021

Fetching data for year: 2022

print(data_2019_2022)

# A tibble: 13,771 × 12
   PWGTP GRPIP  JWAP  JWDP JWMNP FER   HHL   HISPEED SCH   JWTRNS state  year
   <chr> <dbl> <dbl> <dbl> <dbl> <fct> <fct> <fct>   <fct> <chr>  <chr> <dbl>
 1 52        0   192   115    12 2     0     0       2     10     6      2019
 2 16        0   117    76    10 0     0     0       2     10     6      2019
 3 21        0   181   109    15 0     0     0       2     10     6      2019
 4 34        0   106    64    15 0     0     0       1     10     6      2019
 5 33        0   100    59    10 2     0     0       3     10     6      2019
 6 93        0   165   102     6 0     0     0       2     10     6      2019
 7 61        0    97    57     5 2     0     0       2     10     6      2019
 8 94        0    91    50    10 0     0     0       1     10     6      2019
 9 61        0    69    29     5 0     0     0       1     10     6      2019
10 25        0    94    51    20 2     0     0       2     10     6      2019
# ℹ 13,761 more rows
…
